module gitlab.com/khamituly/myAwsomeGoProject

go 1.16

require (
	github.com/ardanlabs/conf v1.4.0
	github.com/dgrijalva/jwt-go v3.2.0+incompatible
	github.com/dimfeld/httptreemux/v5 v5.3.0
	github.com/go-playground/locales v0.13.0
	github.com/go-playground/universal-translator v0.17.0
	github.com/google/uuid v1.2.0
	github.com/leodido/go-urn v1.2.1 // indirect
	github.com/pkg/errors v0.9.1
	gopkg.in/go-playground/assert.v1 v1.2.1 // indirect
	gopkg.in/go-playground/validator.v9 v9.31.0
)
